{
    "count": 3185,
    "next_page": "https://support.worldquantbrain.com/hc/api/internal/communities/public/recent_activities.json?locale=en-us\u0026page=4\u0026per_page=5",
    "page": 3,
    "page_count": 637,
    "per_page": 5,
    "previous_page": "https://support.worldquantbrain.com/hc/api/internal/communities/public/recent_activities.json?locale=en-us\u0026page=2\u0026per_page=5",
    "activities": [
        {
            "id": 34279009106711,
            "action": "post_comment_added",
            "timestamp": "2025-08-25T20:11:19Z",
            "breadcrumbs": [
                {
                    "name": "Global Consultant Community for Staying Ahead",
                    "url": "/hc/en-us/community/topics/20933777451031-Global-Consultant-Community-for-Staying-Ahead"
                }
            ],
            "title": "[Question] How to increase Community points faster?",
            "url": "/hc/en-us/community/posts/34266298178583",
            "comment_count": 4
        },
        {
            "id": 30873531135127,
            "action": "post_comment_added",
            "timestamp": "2025-08-25T20:10:39Z",
            "breadcrumbs": [
                {
                    "name": "Getting started with Research",
                    "url": "/hc/en-us/community/topics/4419282859415-Getting-started-with-Research"
                }
            ],
            "title": "🖊️ Passing Submission Test: How to improve Fitness",
            "url": "/hc/en-us/community/posts/30873523677847",
            "comment_count": 5
        },
        {
            "id": 34004245400855,
            "action": "post_comment_added",
            "timestamp": "2025-08-25T20:10:39Z",
            "breadcrumbs": [
                {
                    "name": "Global Consultant Community for Staying Ahead",
                    "url": "/hc/en-us/community/topics/20933777451031-Global-Consultant-Community-for-Staying-Ahead"
                }
            ],
            "title": "global alpha compitions",
            "url": "/hc/en-us/community/posts/33984626967831",
            "comment_count": 8
        },
        {
            "id": 34184567819287,
            "action": "post_comment_added",
            "timestamp": "2025-08-25T18:11:34Z",
            "breadcrumbs": [
                {
                    "name": "Global Consultant Community for Staying Ahead",
                    "url": "/hc/en-us/community/topics/20933777451031-Global-Consultant-Community-for-Staying-Ahead"
                }
            ],
            "title": "Power Pool Alpha Submission Guidelines — Simplified",
            "url": "/hc/en-us/community/posts/34181218946967",
            "comment_count": 8
        },
        {
            "id": 34355302907543,
            "action": "post_comment_added",
            "timestamp": "2025-08-25T18:11:34Z",
            "breadcrumbs": [
                {
                    "name": "Global Consultant Community for Staying Ahead",
                    "url": "/hc/en-us/community/topics/20933777451031-Global-Consultant-Community-for-Staying-Ahead"
                }
            ],
            "title": "Balancing Performance and Diversification in Alpha Design",
            "url": "/hc/en-us/community/posts/34347015414167",
            "comment_count": 2
        }
    ]
}